Simplifying the UI of the Application — selectize_input • coronaaus
…
      choices
      This variable is the choices given to the slider or selectize input, which should be stored in vars.

      multiple
      This variable is about whether the input should have the option to select multiple variables, the function will automatically generate the response depending on the id.

    Examples

library(purrr)
library(tibble)
library(coronaaus)
coronaaus::corona_aus

#> # A tibble: 6,230 x 7
#>    date       type      province                     lat  long cases cases_total
#>    <date>     <chr>     <chr>                      <dbl> <dbl> <int>       <dbl>
#>  1 2020-01-22 confirmed Australian Capital Territ… -35.5  149.     0           0
#>  2 2020-01-22 confirmed New South Wales            -33.9  151.     0           0
#>  3 2020-01-22 confirmed Northern Territory         -12.5  131.     0           0
#>  4 2020-01-22 confirmed Queensland                 -27.5  153.     0           0
#>  5 2020-01-22 confirmed South Australia            -34.9  139.     0           0
#>  6 2020-01-22 confirmed Tasmania                   -42.9  147.     0           0
#>  7 2020-01-22 confirmed Victoria                   -37.8  145.     0           0
#>  8 2020-01-22 confirmed Western Australia          -32.0  116.     0           0
#>  9 2020-01-22 death     Australian Capital Territ… -35.5  149.     0           0
#> 10 2020-01-22 death     New South Wales            -33.9  151.     0           0
#> # … with 6,220 more rows
…
